504439 152614 449
619726 301712 470
392058 219607 443
641943 98441 509
42626 680819 509
61246 202267 383
889857 988730 507
81917 57472 351
824666 64594 509
467895 945980 525
994151 11350 525
343642 726660 509
907166 647770 525
809767 412799 509
670536 463542 509
772665 196861 509
632341 708237 504
372497 139027 443
885695 455359 525
267302 165343 443
642606 123809 509
946863 200311 525
10525 228167 386
4820 897432 525
982018 647474 525
163707 914299 525
353216 667793 509
959289 461563 525
345081 109657 443
379301 580238 470
52419 697604 509
508064 755546 509
57518 664660 509
493724 858035 525
709550 846250 525
611079 900506 525
397272 311834 441
476996 655275 509
50746 31824 324
105547 363277 443
86441 502652 449
815680 720115 468
157369 280877 443
730198 946506 525
547227 74929 470
495801 675146 509
719449 127991 509
406975 655906 509
190139 932890 525
725417 525793 509
727720 159148 509
762941 675222 504
813896 731014 468
877570 707081 525
199391 860556 525
182966 458014 449
176970 629993 509
967936 801793 525
656921 578120 509
422732 674785 509
834178 624707 509
98803 973872 525
549674 590953 434
228842 64484 386
90663 37467 351
924814 661983 525
391676 714440 509
373555 909319 525
978579 474669 525
128843 436383 449
951804 129242 525
58348 122721 354
287108 153488 443
165413 568637 470
853662 969215 507
50656 586153 470
655048 86163 509
444032 714232 509
394302 751439 509
230106 366137 443
513037 695749 509
866172 383421 525
600128 176955 470
25608 394959 443
455369 958580 525
321465 604152 470
970765 1163 525
948818 42810 525
291977 724975 509
27069 242146 443
667373 177287 509
397374 811919 509
302392 402670 441
399647 939755 525
935713 245314 525
580294 558268 421
196928 273169 443
875164 170130 525
353262 817934 509
648163 567478 509
729017 46623 509
80329 143859 375
861271 924518 476
551352 341441 470
113259 901323 525
101488 796380 509
249001 127981 443
288100 181024 443
940057 252610 525
92442 337106 443
255201 659453 509
991979 420957 525
998718 661439 525
119577 700060 509
423330 91266 449
346457 282251 441
899036 638066 525
483041 676162 509
27046 465397 449
96518 879916 525
253482 324286 407
803307 751886 468
716167 439579 509
746962 14951 509
874977 702894 525
345808 280905 389
413501 307542 449
386845 809507 509
623828 657815 509
653018 852316 525
630197 365368 509
848876 7428 525
461902 329378 449
944674 500687 525
19393 382703 443
79476 130038 354
636493 956837 525
754494 487768 509
481054 402508 449
421944 896202 525
323083 441138 449
375152 331683 441
807231 755217 468
936417 799557 525
809689 282420 509
829845 656075 504
83647 697530 509
324503 681375 509
160678 28037 383
539281 673143 509
982605 910485 507
651255 955869 525
120095 659051 509
516507 964232 525
318351 499541 449
478653 52031 449
638027 775875 504
817790 900715 525
612776 816205 509
721865 320257 509
638284 270205 509
345544 459103 449
202793 382913 443
274710 645411 509
196925 195654 329
538756 612236 452
552483 985306 525
538903 320437 470
266004 975274 525
588295 48820 470
997876 870443 507
280200 18485 443
664220 372949 509
758041 315560 509
675252 644455 442
944253 944705 383
281082 186405 443
821891 934396 525
127082 951606 525
336809 530128 470
130925 895743 525
655345 964436 525
729154 622922 509
553218 658998 509
805378 303872 509
414219 440795 418
732762 490313 509
989491 351521 525
108048 20252 354
665297 706832 504
719039 959248 525
298096 762533 509
448476 146046 449
595689 324545 470
669606 915708 525
498558 55185 449
76726 955392 525
564286 259898 470
740060 77702 509
306250 773884 509
779775 455472 509
198822 87842 383
287503 91097 443
868378 21168 525
618894 596492 447
968476 186248 525
562768 770846 509
768332 39869 509
378153 431231 449
450212 294120 449
247420 878692 525
449449 411617 418
159808 416754 449
133624 916978 525
392619 203962 443
713438 152741 509
855059 411231 525
460079 729575 509
452048 450376 387
290771 776242 509
599831 358298 470
649620 62938 509
450514 425640 400
781064 324496 509
755620 3578 509
575938 859161 525
196488 401841 443
252369 138742 443
812625 429132 509
384688 638675 509
104520 614100 470
885197 428580 525
700717 744368 504
165943 497220 449
544060 40533 470
975118 289250 525
647928 567744 509
744468 978147 525
566816 451246 470
756186 285856 509
502751 412323 444
746957 157048 509
430391 328760 449
875317 179902 525
765832 157280 509
907475 814328 525
186410 393633 443
31695 435509 449
873925 220329 525
684599 543734 509
527901 187294 470
306996 907273 525
336976 992800 525
561385 987103 525
284689 700022 509
